<svg width="62" height="54" xmlns="http://www.w3.org/2000/svg" xmlns:xlink="http://www.w3.org/1999/xlink">
  <defs>
    <path id="a" d="M62 0H0v54h62z"/>
  </defs>
  <g fill="none" fill-rule="evenodd">
    <mask id="b" fill="#fff">
      <use xlink:href="#a"/>
    </mask>
    <path d="M41.31 34.047s-2.536 3.816-4.848 5.388c-2.315 1.573-4.328 1.573-4.923 3.895-.599 2.32-.671 6.213-3.357 6.586-2.686.375-7.165 1.406-10.148 2.154-2.983.752-10.52 2.633-10.666 1.654-.151-.98-.151-2.549 2.087-3.373 2.238-.825 5.344-.96 5.673-.99 1.875-.182 5.976-2.81 5.892-3.26-.104-.556-.647-2.122-1.045-2.093-.399.027-1.906 2.034-2.87 2.133-1.932.197-4.523.85-6.48.877-1.96.028-3.639.17-4.086-.084-.448-.254-.924-.647-1.874-.14-.952.504-1.427.84-2.182.785-.756-.057-.868 0-.952-1.122-.084-1.123.169-1.488.392-1.741.224-.254.64-.895 1.367-.91.73-.015 2.521-.072 4.732-.015 2.21.055 2.993-.199 3.33-.31.335-.113 1.202-.225 1.65-.534.447-.309 2.518-1.655 3.218-2.049.698-.392 1.454-1.29 1.734-1.907.279-.618.335-.928.531-1.403.195-.478.756-1.096.42-1.46-.335-.366-2.238-2.303-3.638-1.825-1.398.475-4.811 2.301-6.461 3.002-1.651.702-3.33 1.375-5.149 1.32-1.818-.055-2.014.17-2.657-.618-.644-.785-1.344-1.74-.812-3.03.531-1.292.337-1.264 1.316-2.22.979-.953 2.377-2.3 2.377-4.294 0-1.992-.168-3.284.728-4.603.894-1.319 1.482-2.162 2.881-3.229 1.399-1.065 3.89-2.639 5.231-2.497 1.344.141 6.611.765 7.33 1.487.84.843.93 2.295.84 3.846-.083 1.432-.56 2.067-1.203 3.134-.472.782-1.185 1.677-1.846 2.087-.263.163-.532.112-1.092-.803-.709-1.165-2.713-2.936-2.892-3.155-1.455-1.757-1.64-3.874-2.87-3.705-.778.11-.42 1.516-.448 2.359-.022.6.783 1.627 1.54 2.554.754.925 2.767 2.47 3.328 3.676.56 1.208.67 2.582 1.902 1.826 1.23-.76 2.154-1.263 3.105-2.47.952-1.208 2.154-2.752 2.21-4.661.056-1.907-.473-3.228.6-2.358 1.078.872 3.175 2.5 6.337.786 3.163-1.712 10.689-10.442 14.94-11.03 4.254-.59 5.344-.31 7.945.674 2.603.982 2.585.676 3.78-.98 1.202-1.66 2.516-5.31-.702-7.72-3.217-2.415-7.497-.254-7.666-.366C47.692 3.203 49.397.256 52.28.03c2.882-.224 7.105.76 8.448 4.1 1.344 3.338 1.336 3.814 1.229 5.442-.109 1.629-.527 3.622-2.208 4.633-1.678 1.01-2.685 1.514-2.377 2.049.306.532 2.125 2.525 1.567 4.52-.56 1.992-1.847 3.9-3.61 6.623-1.762 2.723-3.021 5.305-2.91 6.737.114 1.431.477 2.246 1.205 3.114.726.872 2.432 2.64 2.461 4.912.028 2.275.055 2.95-.868 4.183-.924 1.236-1.734 2.19-2.126 2.583-.391.393-.308.534-1.65.59-1.344.055-4.813.112-5.176.196-.363.085-.979.142-.951-.336.027-.478 1.37-2.246 2.798-2.33 1.426-.085 2.21.084 2.517-.76.308-.842 2.016-2.495.728-3.534-1.287-1.04-1.54 1.346-3.021 1.346-1.484 0-3.666-.364-4.366-.252-.698.112-2.265.561-1.761-.197.504-.757 1.565-1.656 2.126-1.515.559.14 3.357-.477 3.748-1.683.392-1.21.308-2.892-1.258-4.128-1.567-1.234-3.359-2.44-3.778-3.424-.419-.984-1.042.164-1.737 1.148" fill="#FFF" mask="url(#b)"/>
  </g>
</svg>