<?xml version="1.0" encoding="utf-8"?>
<!-- Generator: Adobe Illustrator 20.1.0, SVG Export Plug-In . SVG Version: 6.00 Build 0)  -->
<svg version="1.1" id="Layer_1" xmlns="http://www.w3.org/2000/svg" xmlns:xlink="http://www.w3.org/1999/xlink" x="0px" y="0px"
	 viewBox="0 0 488 60" style="enable-background:new 0 0 488 60;" xml:space="preserve">
<style type="text/css">
	.st0{fill:#55980C;}
	.st1{fill:#414042;}
</style>
<g>
	<path class="st0" d="M438.9,10.1l1.1-0.2c3.2-0.3,6.1-0.3,8.7-2.1c0.1-0.1,0.4-0.2,0.6-0.3c4.8-1.4,10.5-1.9,14.9-4.5
		c0.8-0.5,1.6-1.6,2.7-2.2c2.1-1.1,3.5-0.9,5.9-0.7l2.5,0.1c4.4,1.3,7,3.6,11.6,3.9c0.4,0.8,0.6,1.1,0,2.1c-2.5,4.1-3.6,5.2-8.7,5
		c-0.6,1-0.5,2-0.7,3.2c-1.8,0.2-2.9,0.3-4.3-0.8h-2.6c-2.1,1.9-5.1,4.6-6.6,7.1c-0.8,1.3-0.7,3-1.6,4.3c-1.1,1.5-3.6,3.1-4.1,5
		c-0.6,2.4,1.1,6,1.6,8.4c0.5,2.1,0.6,4.4,1.8,6.3c1.7,2.5,4.8-1.3,5.2,3.5c-1.4,0.1-2.3-0.1-3.5,0.5h-3.1c-2.2-1.1-5.2-10.2-6.5-13
		c-2.3,2.9-3.5,7-5.2,10.5c-0.5,1-1.1,2.8-0.7,3.9c0.4,1.3,3,3.2,4.1,4.3c-1.1,0.9-2.4,1.4-4.3,0.6c-8.8-3.5,2.8-20.1-0.3-24.5
		l-3,0.1c-4.1-0.3-8-1.6-11.5-3.4c-0.6,3.5-1.6,7.3-2.9,10.5c-0.6,1.5-1.8,2.6-1.8,4.3c0,0.9-0.2,1.3-0.3,2.1c0,0.6,0,1.2,0,1.8
		c0,0.9,1.6,6.5,2.8,6.7c1,0.2,2,0.1,3,0.4c0.1,0,0.2,0,0.4,0.1c0.5,0.2,0.6,0.4,0.7,0.9c0.1,0.3,0.7,0.8,0.9,1.1
		c-0.9,0.9-2.5,1.2-4.2,1.3h-0.3c-4-0.1-4.2-5.3-6.1-8.2c-0.5-0.8-2.4-2.8-2.5-3.7c-0.3-2.6,0.9-4.7,0.4-7.6c-0.3-1.5-2.2-3.1-3-4.3
		c-2.9,0.5-5.2,3.6-7.6,5.5c-2.9,2.2-6.4,4.9-7.9,7.8c-0.8,1.6-1.1,3.8-0.9,5.5c0.2,2.2,4.3,0.7,3.4,4.3c-1.5,0.2-5,0.9-5.9-0.5
		c-2.1-3.2,0.1-11.2,1.1-14.6c0.1-0.3,2-1.1,2.4-1.4c1-0.7,1.8-2.6,2.3-3.7c2.3-5.8,1.9-12.4,4.9-17.8l-2.4-0.2
		c-4.2-0.3-19.5-0.9-22.1-3.9c0.7-0.1,1.2-0.2,2.1-0.3l5.5-0.1h4.9c5.3,0.5,11.3,2,16.1-0.4c2-1,4.4-2.7,6.7-3
		C428.2,8.8,433.5,10.1,438.9,10.1"/>
	<g>
		<path class="st1" d="M322.5,2.2c3.4,2.4,1.4,7.7,1.8,11.3c1.4,0.7,2-1,3.2-1.2c3.2-1.4,8-1.9,11.4-0.5c5,1.9,7,7.7,7.5,12.8
			l0.5,26.1c-0.5,1-1.6,1.9-2.5,2.2c-5,0.1-11.8,2.7-14.8-2.4c-0.2-6.3,0.8-13.1-0.9-18.8c-0.5-1-1.6-1.9-2.5-1.2
			c-3.4,1.8-0.9,8.5-1.6,12.8v8.2c-1.6,2.7-5.2,1.2-7.7,1.9c-2.9-1-8.4,1.9-8.8-2.7l-0.5-45.6c0-1.2,0.7-2.4,1.6-2.9
			C313.5,1.7,318.2,2,322.5,2.2"/>
		<path class="st1" d="M267.6,2.6c1.6,2.6-1.1,7.7,2.5,8.7c1.4,0.2,3.2-0.5,3.9,1.2c0.5,3.6,0.2,7.5,0.2,11.3
			c-1.1,2.7-5-0.2-5.9,2.4c0,3.6-0.4,7.7,0.5,11.1c1.1,1.2,3-0.2,4.3,1.2l0.9,1.2c-1.1,4.3,2.1,10.9-2.7,13
			c-6.4,1-14.5,2.2-19.1-3.4c-1.1-7.8-0.5-16.2-0.9-23.9c-0.9-1.2-2.5-1.4-2.7-3.1c0-4.4-1.1-9.2,1.8-11.6c4.8-1.9,7.5-5.6,11.6-8.7
			C263.7,2.3,266.2,1.4,267.6,2.6"/>
		<path class="st1" d="M304.4,13.9c0,4.6,0.5,9.7-0.2,14c-3.9,1.9-11.6-1.9-12,5.1c0.7,5.8,7,2.7,10.7,3.6l1.4,1.7v13.3
			c-3.2,3.4-9.5,2.1-13.9,1.7c-6.6-1.2-12.9-7.7-14.5-14.5c-2.3-9.7,1.1-18.8,8.4-24.6c5-3.1,11.6-2.4,17.7-2.4
			C303,12,303.9,13,304.4,13.9"/>
		<path class="st1" d="M21,22c-1.1,0.2-1.6,1.9-1.8,3.1c-0.2,2.6-0.8,5.9,0.9,8.7c2.3,0.7,4.3,0,6.4-0.7c1.1-0.7,2-1.9,2.3-3.4
			c0.5-2.2-0.2-4.3-1.4-6C25.5,22.2,23.2,22,21,22 M41.2,10.7c5.7,5.8,7.5,14,5.9,22.7c-1.4,6-4.5,12.6-10.2,15.5
			c-8.4,6-20.2,4.3-30.7,4.8c-1.8,0.2-4.5,0-5.2-0.5c-0.8-0.5-0.8-1.1-0.9-2.4c-0.1-1.4,0-29.2,0.7-44.6c1.6-5.1,7-3.2,11.6-3.4
			C22.8,2.9,33.7,2.2,41.2,10.7"/>
		<path class="st1" d="M116.8,26.8c-1.4,0.5-2,1.9-1.6,3.6c1.1,2.2,4.1,1.9,6.4,1.7c1.4-0.5,2.7-1.2,2.7-2.9
			C123.1,26.6,119.5,26.1,116.8,26.8 M207.9,2.5c1.1,0.2,1.1,1.2,1.4,2.2c-1.4,10.9-4.8,20.5-7.5,30.7c-1.8,5.6-3.9,11.1-6.1,16.7
			c-1.8,2.4-5,1.2-7.5,1.5c-4.3-0.1-11.1,2.4-12.7-3.1c-0.9-2.4-0.9-5.1-2-7.2l-1.1,0.5c-1.4,3.4-1.6,8-5,9.9
			c-5.2,0.2-11.4,1.2-16.1-0.7c-3.4-5.1-3.9-11.6-5.9-17.1c-1.4-2.9-1.8-6.5-3.2-8.7c-1.4,7.2,0.2,15-0.7,22.2
			c-0.9,4.4-4.1,8.2-8,9.7c-9.8,1.7-22,2.4-30.7-2.2c-2.5-1.7-1.7-5.1-1.7-7.5c0.2-1.4,0.1-3.6,1.7-4.3c6.4,1.7,12.9,5.1,20,2.9
			c0.2-0.2,0.7-0.5,0.7-1c0,0,0.6-1.8-0.7-1.5c-7.8,1.5-16.6-0.6-22.7-7.4c-3.6-5.6-2.5-14.2,0.9-19.3c3.9-6.5,10.5-8.2,17.3-7
			c2.5,0.7,5,1.7,7.3,3.1c2.3-4.3,8-1.7,12-2.7l0.2-0.2c-0.2-2.7-2.5-6.5,0.5-8.5c4.8-0.7,10.4-0.2,15.4-0.2c3,1.9,2.5,6,3.6,8.9
			c1.2,5.5,3.2,10.2,4.3,15.5c0.2,0.7,0.9,1,1.6,0.7c1.2-1.7,2.1-5.1,2-6.5c0.3-2.3-3.4-11.2-3.6-17.7c1.8-2.2,5.2-1,7.7-1.2
			c3.4,0.7,8.2-1.9,10.5,1.7c1.6,7.2,2.7,15,5.2,21.7c0,0.5,0.5,0.5,0.7,0.2c3-7.2,3.6-15.2,5.7-22.9c0.5-1,1.6-0.7,2.5-1.2
			L207.9,2.5z"/>
		<path class="st1" d="M68.6,29.2c-0.7,1-1.6,2.4-0.9,3.9c0.5,2.2,2.7,2.4,4.5,3.1c2.5,0,5.2-0.7,6.1-3.4c0.2-1.4-0.2-2.7-1.1-3.9
			C75.2,27.1,70.4,26.6,68.6,29.2 M92.7,20.3c3.2,5.1,4.3,13.5,1.6,19.6c-3,8-9.5,13.3-17.5,14c-9.1,0.7-18.4-0.5-23.2-9.2
			c-4.8-6-4.3-16.2-1.4-22.9c4.3-9.4,14.3-12.5,24.1-11.3C83.1,10.9,88.8,14.8,92.7,20.3"/>
		<path class="st1" d="M223.9,36.4c-0.7,0.5-1.8,0.6-2.3,1.7c-0.1,1.2-0.9,1.7,0.9,2.4c1.4,0.5,3.4,0.5,4.8-0.2
			c0.9-0.2,1.6-1.2,1.6-2.4C227,35.8,225.8,35.8,223.9,36.4 M246,20.7c1.4,9.9-0.2,20-0.2,29.9c-0.5,1.2-1.4,1.9-2.5,2.2
			c-3.9,0.2-8,0.5-11.6-0.2c-0.9-0.7-0.2-3.1-1.8-2.2c-4.5,3.6-12.3,3.9-17.5,1.4c-3.6-1.9-6.4-5.8-7.1-9.9
			c-0.5-5.1,1.4-9.2,4.3-12.8c5.5-3.6,12.5-4.8,19.3-3.1c0.2-0.2,1.1-0.3,0.8-2.1c-3.9-2.4-9-1-13.3-0.8c-1.8,0.2-4.5,1.5-5.8-0.4
			c-0.2-3.1-0.7-6.6,0.2-9.4c6.4-3.9,15.5-2.2,23-2.2C239.1,11.8,243.9,15.1,246,20.7"/>
		<path class="st1" d="M360.3,10.5c1.1,0,2.1-0.1,2.1-1.5c0-1.1-0.9-1.3-1.8-1.3h-1.7v2.8H360.3z M358.8,15.6h-1.3v-9h3.2
			c2,0,3,0.8,3,2.6c0,1.6-0.9,2.3-2.2,2.5l2.4,3.9h-1.4l-2.2-3.9h-1.5V15.6z M360.3,17.6c3.3,0,5.9-2.8,5.9-6.5
			c0-3.7-2.6-6.5-5.9-6.5c-3.4,0-6,2.8-6,6.5C354.4,14.8,357,17.6,360.3,17.6 M352.9,11.1c0-4.5,3.4-7.8,7.4-7.8
			c4,0,7.4,3.3,7.4,7.8c0,4.5-3.4,7.8-7.4,7.8C356.3,18.9,352.9,15.6,352.9,11.1"/>
	</g>
</g>
</svg>
